......
----------------------------------------------------------------------
Ran 6 tests in 0.001s

OK
Name               Stmts   Miss Branch BrPart  Cover   Missing
--------------------------------------------------------------
Diplomacy.py          52      1     28      1    98%   43->44, 44
TestDiplomacy.py      35      0      0      0   100%
--------------------------------------------------------------
TOTAL                 87      1     28      1    98%
