...................
----------------------------------------------------------------------
Ran 19 tests in 0.006s

OK
Name               Stmts   Miss Branch BrPart  Cover   Missing
--------------------------------------------------------------
Diplomacy.py         176      4    144      4    98%   48->49, 49-51, 53->69, 122->exit, 161->164, 164
TestDiplomacy.py      76      0      0      0   100%
--------------------------------------------------------------
TOTAL                252      4    144      4    98%
